22222222200222222222
20000000000000000002
20002222222222220002
20000000000000000002
20200000000000000202
20200000000000000202
20200000000000000202
20200000000000000202
20200000000000000202
20200000000000000200
20200000000000000200
20200000000000000202
20200000000000000202
20200000000000000202
20200000000000000202
20200000000000000202
20000000000000000002
20002222222222220002
20000000000000000002
22222222200222222222
11111111111111111111
11111111111111111111
11111111111111111111
11111111111111111111
11111111111111111111
11111111111111111111
11111111111111111111
11111111111111111111
11111111111111111111
11111111111111111111
11111111111111111111
11111111111111111111
11111111111111111111
11111111111111111111
11111111111111111111
11111111111111111111
11111111111111111111
11111111111111111111
11111111111111111111
11111111111111111111
