33333333333333333333
34444444444444444443
34444444444444444443
34444444444444444443
34444444444444444443
34444444444444444443
34444444444444444443
34444444444444444443
34444444444444444443
34444444444444444443
34444444444444444443
34444444444444444443
34444444444444444443
34444444444444444443
34444444444444444443
34444444444444444443
34444444444444444443
34444444444444444443
34444444444444444443
33333333344333333333
